…
<img src="01-market-basket_files/figure-html/unnamed-chunk-5-1.png" width="384" />

Podemos hacer una tabla con las canastas y
examinar los artículos más frecuentes:


```r
canastas_tbl <- tibble(
  canasta_id = 1:length(lista_mb),
  articulos = lista_mb) 
canastas_tbl
```

```
## # A tibble: 9,835 × 2
##    canasta_id articulos
##         <int> <list>   
##  1          1 <chr [4]>
##  2          2 <chr [3]>
##  3          3 <chr [1]>
##  4          4 <chr [4]>
##  5          5 <chr [4]>
##  6          6 <chr [5]>
##  7          7 <chr [1]>
##  8          8 <chr [5]>
##  9          9 <chr [1]>
## 10         10 <chr [2]>
## # … with 9,825 more rows
```
…
