…
```r
dtejas_tbl <- tibble(id = paste0("doc_", 1:length(textos)), 
    tejas = tejas_doc) |> 
  unnest(cols = tejas) |> 
  unique() |> mutate(val = 1) |> 
  pivot_wider(names_from = id, values_from = val, values_fill = list(val = 0)) |> 
  arrange(tejas) # opcionalmente ordenamos tejas
dtejas_tbl
```

```
## # A tibble: 123 × 7
##    tejas  doc_1 doc_2 doc_3 doc_4 doc_5 doc_6
##    <chr>  <dbl> <dbl> <dbl> <dbl> <dbl> <dbl>
##  1 " al "     1     1     0     0     0     0
##  2 " alc"     1     1     0     0     0     0
##  3 " ani"     0     0     0     0     0     1
##  4 " cor"     0     0     0     0     1     0
##  5 " de "     0     0     1     1     0     0
##  6 " doc"     0     0     1     1     0     0
##  7 " eje"     0     0     1     1     0     0
##  8 " el "     0     0     1     1     0     0
##  9 " es "     0     0     1     1     0     0
## 10 " gat"     1     1     0     0     0     0
## # … with 113 more rows
```
…
