…
```
## # A tibble: 100 × 4
##    nombre                        features_3 media_peli num_calif_peli
##    <chr>                              <dbl>      <dbl>          <dbl>
##  1 The Best of Friends: Vol. 2       -0.938       4.11           2713
##  2 Friends: The Series Finale        -0.901       4.12           3809
##  3 Friends: Season 3                 -0.880       4.08           4844
##  4 The Best of Friends: Vol. 1       -0.875       4.04           4999
##  5 The Best of Friends: Season 3     -0.869       4.17           4325
##  6 The Best of Friends: Season 4     -0.861       4.26           3792
##  7 Friends: Season 4                 -0.860       4.15           4853
##  8 Friends: Season 1                 -0.853       4.11           5050
##  9 Friends: Season 5                 -0.852       4.23           4386
## 10 Friends: Season 6                 -0.846       4.28           3975
## # … with 90 more rows
## # A tibble: 100 × 4
##    nombre                    features_3 media_peli num_calif_peli
##    <chr>                          <dbl>      <dbl>          <dbl>
##  1 Brazil                          1.27       3.81           4557
##  2 Hellraiser                      1.14       3.39           3582
##  3 Evil Dead 2: Dead by Dawn       1.13       3.72           4148
##  4 Dawn of the Dead                1.13       3.59           3432
##  5 Night of the Living Dead        1.11       3.55           4722
##  6 Dead Man                        1.10       3.63           2345
##  7 Repo Man                        1.08       3.47           2662
##  8 The Evil Dead                   1.07       3.76           4240
##  9 A Clockwork Orange              1.05       3.72          15551
## 10 Blade Runner                    1.04       3.96          13298
## # … with 90 more rows
```

Otra dimensión latente:


```r
res <- top_tail(latentes_pelis, features_4)
```

```
## # A tibble: 100 × 4
##    nombre                                 features_4 media_peli num_calif_peli
##    <chr>                                       <dbl>      <dbl>          <dbl>
##  1 But I'm a Cheerleader                      -0.653       3.38           3087
##  2 The Craft                                  -0.596       3.43           4000
##  3 Hocus Pocus                                -0.590       3.33           4131
##  4 Bio-Dome                                   -0.587       2.80           2249
##  5 Now and Then                               -0.560       3.60           2712
##  6 The Sweetest Thing                         -0.554       3.16           3377
##  7 Romy and Michele's High School Reunion     -0.546       3.18           3696
##  8 Don't Tell Mom the Babysitter's Dead       -0.540       3.18           3585
##  9 Practical Magic                            -0.538       3.57           6847
## 10 Encino Man                                 -0.538       3.11           4148
## # … with 90 more rows
## # A tibble: 100 × 4
##    nombre                           features_4 media_peli num_calif_peli
##    <chr>                                 <dbl>      <dbl>          <dbl>
##  1 Patton                                 1.18       3.99           7820
##  2 Lawrence of Arabia                     1.12       4.13           8092
##  3 The Bridge on the River Kwai           1.08       4.13           7372
##  4 The Longest Day                        1.07       4.03           2403
##  5 Ben-Hur: Collector's Edition           1.06       3.97           5490
##  6 Citizen Kane                           1.04       4.03          12924
##  7 The Godfather                          1.04       4.50          20114
##  8 High Noon                              1.03       3.91           4473
##  9 The Treasure of the Sierra Madre       1.03       4.01           2903
## 10 The Godfather Part II                  1.02       4.40          14953
## # … with 90 more rows
```
…
