6 Dimensiones latentes para recomendación | Métodos analíticos, ITAM 2022
…
top_df <- arrange(latentes_pelis, {{ feature }} ) |> 
  select(nombre, {{ feature }}, media_peli, num_calif_peli) |> 
  filter(num_calif_peli > 2000) |> 
  head(100) 
tail_df <- arrange(latentes_pelis, desc({{ feature }}) ) |> 
  select(nombre, {{ feature }}, media_peli, num_calif_peli) |> 
  filter(num_calif_peli > 2000) |> 
  head(100)
print(top_df)
print(tail_df)
bind_rows(top_df, tail_df)
}
res <- top_tail(latentes_pelis, features_3)

## # A tibble: 100 × 4
##    nombre                        features_3 media_peli num_calif_peli
##    <chr>                              <dbl>      <dbl>          <dbl>
##  1 The Best of Friends: Vol. 2       -0.944       4.11           3024
##  2 Friends: The Series Finale        -0.925       4.12           3809
##  3 Friends: Season 3                 -0.900       4.08           4844
##  4 The Best of Friends: Vol. 1       -0.895       4.04           4999
##  5 The Best of Friends: Season 3     -0.891       4.17           4325
##  6 The Best of Friends: Season 4     -0.885       4.26           3792
##  7 Friends: Season 4                 -0.879       4.15           4853
##  8 Friends: Season 5                 -0.875       4.23           4386
##  9 Friends: Season 1                 -0.874       4.10           5050
## 10 Friends: Season 6                 -0.866       4.28           3975
## # … with 90 more rows
## # A tibble: 100 × 4
##    nombre                    features_3 media_peli num_calif_peli
##    <chr>                          <dbl>      <dbl>          <dbl>
##  1 Brazil                          1.24       3.81           4557
##  2 Hellraiser                      1.13       3.39           3582
##  3 Dawn of the Dead                1.12       3.59           3432
##  4 Evil Dead 2: Dead by Dawn       1.12       3.72           4148
##  5 Night of the Living Dead        1.12       3.55           4722
##  6 Repo Man                        1.08       3.47           2662
##  7 Dead Man                        1.08       3.63           2345
##  8 The Evil Dead                   1.07       3.76           4240
##  9 A Clockwork Orange              1.04       3.72          15551
## 10 Ran                             1.02       3.97           3896
## # … with 90 more rows

Otra dimensión latente:

res <- top_tail(latentes_pelis, features_4)

## # A tibble: 100 × 4
##    nombre                                 features_4 media_peli num_calif_peli
##    <chr>                                       <dbl>      <dbl>          <dbl>
##  1 But I'm a Cheerleader                      -0.670       3.38           3087
##  2 The Craft                                  -0.601       3.43           4000
##  3 Bio-Dome                                   -0.580       2.80           2249
##  4 Hocus Pocus                                -0.575       3.33           4131
##  5 Now and Then                               -0.563       3.60           2712
##  6 The Sweetest Thing                         -0.553       3.16           3377
##  7 Romy and Michele's High School Reunion     -0.548       3.18           3696
##  8 Encino Man                                 -0.542       3.11           4148
##  9 Practical Magic                            -0.534       3.57           6190
## 10 Don't Tell Mom the Babysitter's Dead       -0.524       3.18           3262
## # … with 90 more rows
## # A tibble: 100 × 4
##    nombre                           features_4 media_peli num_calif_peli
##    <chr>                                 <dbl>      <dbl>          <dbl>
##  1 Patton                                 1.18       3.99           7820
##  2 Lawrence of Arabia                     1.12       4.13           8092
##  3 The Longest Day                        1.09       4.03           2403
##  4 The Bridge on the River Kwai           1.08       4.12           8184
##  5 Ben-Hur: Collector's Edition           1.06       3.97           5490
##  6 High Noon                              1.03       3.91           4473
##  7 The Treasure of the Sierra Madre       1.02       4.01           2903
##  8 Citizen Kane                           1.02       4.03          12924
##  9 The Godfather                          1.02       4.50          22253
## 10 The Godfather Part II                  1.01       4.40          14953
## # … with 90 more rows
…
