12 Experimentación y algoritmos de tragamonedas (bandits) | Métodos analíticos, ITAM 2022
…
anuncio_int_alto <- rbinom(1000, 1, ps_int_alto) 
anuncio_int_bajo <-  rbinom(1000, 1, ps_int_bajo)
head(anuncio_int_alto)

## [1] 0 0 0 0 0 0

Y juntamos los datos que observaríamos:

datos <- tibble(anuncio_ps = c(anuncio_int_alto, anuncio_int_bajo),
                compras = c(compras_int_alto, compras_int_bajo))
datos

## # A tibble: 2,000 × 2
##    anuncio_ps compras
##         <int>   <int>
##  1          0       1
##  2          0       7
##  3          0       3
##  4          0       7
##  5          0       6
##  6          0       3
##  7          0      10
##  8          0       2
##  9          0       5
## 10          0       5
## # … with 1,990 more rows
…
## # A tibble: 3 × 6
##       n brazo conteo  suma media    ee
##   <dbl> <int>  <dbl> <dbl> <dbl> <dbl>
## 1     2     1      1     2     2     0
## 2     2     2      1     6     6     0
## 3     2     3      0     0   NaN   NaN

Y ahora generamos 100 datos adicionales y guardamos los resultados:

e_miope <- crear_epsilon_miope(epsilon = 0.3, inicial = 1, sim_fun = simular)
df_iteraciones <- map(1:600, ~ e_miope()) |> bind_rows() |> as_tibble()
df_iteraciones 

## # A tibble: 1,800 × 6
##        n brazo conteo  suma media    ee
##    <dbl> <int>  <dbl> <dbl> <dbl> <dbl>
##  1     1     1      1     2     2     0
##  2     1     2      0     0   NaN   NaN
##  3     1     3      0     0   NaN   NaN
##  4     2     1      1     2     2     0
##  5     2     2      1     4     4     0
##  6     2     3      0     0   NaN   NaN
##  7     3     1      1     2     2     0
##  8     3     2      2     8     4     0
##  9     3     3      0     0   NaN   NaN
## 10     4     1      1     2     2     0
## # … with 1,790 more rows
…
df_iteraciones <- lapply(1:500, function(i){
  resultados <- lapply(1:length(metodos), function(i){ 
    metodos[[i]]() |> mutate(tipo = names(metodos)[i]) })
  bind_rows(resultados)
}) |> bind_rows() |> as_tibble()
tail(df_iteraciones, 200)

## # A tibble: 200 × 5
##        n brazo conteo  suma tipo         
##    <dbl> <int>  <dbl> <dbl> <chr>        
##  1   478     2    137   970 softmax_t_100
##  2   478     3    297  3037 softmax_t_100
##  3   479     1      7     6 softmax_t_10 
##  4   479     2      0     0 softmax_t_10 
##  5   479     3    472  4708 softmax_t_10 
##  6   479     1    479   490 softmax_t_01 
##  7   479     2      0     0 softmax_t_01 
##  8   479     3      0     0 softmax_t_01 
##  9   479     1     44    33 softmax_t_100
## 10   479     2    137   970 softmax_t_100
## # … with 190 more rows
…
