3 Similitud y vecinos cercanos | Métodos analíticos, ITAM 2022
…
3.3 Representación matricial

Podemos usar una matriz binaria para guardar todas las
representaciones en k-tejas de nuestra colección de documentos. Puede usarse
una representación rala (sparse) si es necesario:

dtejas_tbl <- tibble(id = paste0("doc_", 1:length(textos)), 
    tejas = tejas_doc) |> 
  unnest(cols = tejas) |> 
  unique() |> mutate(val = 1) |> 
  pivot_wider(names_from = id, values_from = val, values_fill = list(val = 0)) |> 
  arrange(tejas) # opcionalmente ordenamos tejas
dtejas_tbl

## # A tibble: 123 × 7
##    tejas  doc_1 doc_2 doc_3 doc_4 doc_5 doc_6
##    <chr>  <dbl> <dbl> <dbl> <dbl> <dbl> <dbl>
##  1 " al "     1     1     0     0     0     0
##  2 " alc"     1     1     0     0     0     0
##  3 " ani"     0     0     0     0     0     1
##  4 " cor"     0     0     0     0     1     0
##  5 " de "     0     0     1     1     0     0
##  6 " doc"     0     0     1     1     0     0
##  7 " eje"     0     0     1     1     0     0
##  8 " el "     0     0     1     1     0     0
##  9 " es "     0     0     1     1     0     0
## 10 " gat"     1     1     0     0     0     0
## # … with 113 more rows
…
tejas_tbl <- tibble(doc_id = 1:num_tweets, tejas = tejas_doc)
hash_f <- map(1:50, ~ generar_hash())
system.time(
  docs_firmas <- tejas_tbl |> 
  mutate(firma = map(tejas, \(lista) map_int(hash_f, \(h) min(h(lista))))) |> 
  select(doc_id, firma)) 

##    user  system elapsed 
##   27.78    0.02   27.80

docs_firmas

## # A tibble: 100,000 × 2
##    doc_id firma     
##     <int> <list>    
##  1      1 <int [50]>
##  2      2 <int [50]>
##  3      3 <int [50]>
##  4      4 <int [50]>
##  5      5 <int [50]>
##  6      6 <int [50]>
##  7      7 <int [50]>
##  8      8 <int [50]>
##  9      9 <int [50]>
## 10     10 <int [50]>
## # … with 99,990 more rows
…
