11 t-SNE y reducción de dimensionalidad | Métodos analíticos, ITAM 2022
…
Observación: algunos dígitos parecen estar cerca de un cluster que
no les corresponde, podemos checar:

dat_tsne <- mutate(dat_tsne, id = row_number())
seises_tbl <- filter(dat_tsne, 
        digito == 6 | digito == 0, V1 < 6, V1 > 0, V2 > -25)
seises_tbl |> arrange(desc(digito))

## # A tibble: 46 × 4
##       V1    V2 digito    id
##    <dbl> <dbl> <chr>  <int>
##  1 5.50  -22.2 6       1247
##  2 5.47  -22.8 6       1834
##  3 4.32  -21.9 0         86
##  4 0.597 -21.0 0        260
##  5 2.36  -20.7 0        276
##  6 2.97  -23.3 0        314
##  7 2.69  -19.8 0        348
##  8 1.49  -20.7 0        416
##  9 3.26  -23.1 0        436
## 10 4.19  -18.9 0        445
## # … with 36 more rows
…
