Reducción de dimensionalidad y marginación de municipios
…
Por ejemplo, si promediamos los índices de marginación de los municipios dentro de cada estado obtenemos:

marginacion |> group_by(NOM_ENT) |> summarise(marg = mean(IM), n = sum(POB_TOT)) |> 
    arrange(desc(marg))

## # A tibble: 32 × 3
##    NOM_ENT                           marg       n
##    <chr>                            <dbl>   <dbl>
##  1 Guerrero                         1.12  3388768
##  2 Chiapas                          0.808 4796580
##  3 Oaxaca                           0.652 3801962
##  4 Puebla                           0.290 5779829
##  5 Veracruz de Ignacio de la Llave  0.216 7643194
##  6 Yucatan                          0.176 1955577
##  7 San Luis Potosi                  0.114 2585518
##  8 Campeche                        -0.163  822441
##  9 Michoacan de Ocampo             -0.203 4351037
## 10 Hidalgo                         -0.218 2665018
## # … with 22 more rows

Aproximación de rango uno

marginacion

## # A tibble: 2,456 × 16
##    CVE_MUN CVE_ENT NOM_ENT  NOM_MUN  POB_TOT ANALF SPRIM OVSDE OVSEE OVSAE  VHAC
##    <chr>   <chr>   <chr>    <chr>      <dbl> <dbl> <dbl> <dbl> <dbl> <dbl> <dbl>
##  1 09012   09      Distrit… Tlalpan   650567  2.25  9.46  0.13  0.23 11.4  26.1 
##  2 09013   09      Distrit… Xochimi…  415007  2.73  9.92  0.19  0.31  6.69 32.8 
##  3 09008   09      Distrit… La Magd…  239086  2.65 11.1   0.1   0.09  3.57 30.8 
##  4 09002   09      Distrit… Azcapot…  414711  1.63  7.19  0.03  0.01  0.17 23.4 
##  5 09014   09      Distrit… Benito …  385439  0.56  3.06  0.02  0.01  0.04  8.19
##  6 09015   09      Distrit… Cuauhte…  531831  1.44  6.45  0.05  0.05  0.08 19.4 
##  7 09010   09      Distrit… alvaro …  727034  2.19  9.43  0.04  0.04  0.76 26.9 
##  8 09005   09      Distrit… Gustavo… 1185772  2.17  9.15  0.06  0.04  0.29 27.8 
##  9 09004   09      Distrit… Cuajima…  186391  2.37  9.64  0.13  0.08  1.67 29.5 
## 10 09016   09      Distrit… Miguel …  372889  1.21  6.02  0.02  0.02  0.03 17.1 
## # … with 2,446 more rows, and 5 more variables: OVPT <dbl>, PL_5000 <dbl>,
## #   PO2SM <dbl>, IM <dbl>, GM <chr>
…
